北京市	100000
天津市	300000
河北省	000001
山西省	000002
内蒙古	000003
辽宁省	000004
吉林省	000005
黑龙江省	000006
上海市	200000
江苏省	000007
浙江省	000008
安徽省	000009
福建省	000010
江西省	000011
山东省	000012
河南省	000013
湖北省	000014
湖南省	000015
广东省	000016
广西	    000017
海南省	000018
重庆市	400000
四川省	000019
贵州省	000020
云南省	000021
西藏	    000022
陕西省	000023
甘肃省	000024
青海省	000025
宁夏	    000026
新疆	    000027
香港	    999077
澳门	    999078
台湾省	999079
